module gitlab.com/otus-go-hw/hw-28

go 1.13

require (
	github.com/Azure/go-ansiterm v0.0.0-20170929234023-d6e3b3328b78 // indirect
	github.com/Microsoft/go-winio v0.4.12 // indirect
	github.com/Nvveen/Gotty v0.0.0-20120604004816-cd527374f1e5 // indirect
	github.com/SAP/go-hdb v0.14.1 // indirect
	github.com/SermoDigital/jose v0.9.1 // indirect
	github.com/armon/go-radix v1.0.0 // indirect
	github.com/asaskevich/govalidator v0.0.0-20190424111038-f61b66f89f4a // indirect
	github.com/bitly/go-hostpool v0.0.0-20171023180738-a3a6125de932 // indirect
	github.com/bmizerany/assert v0.0.0-20160611221934-b7ed37b82869 // indirect
	github.com/cenkalti/backoff v2.2.1+incompatible
	github.com/cenkalti/backoff/v3 v3.2.2
	github.com/cockroachdb/apd v1.1.0 // indirect
	github.com/containerd/continuity v0.0.0-20190426062206-aaeac12a7ffc // indirect
	github.com/denisenkom/go-mssqldb v0.0.0-20190423183735-731ef375ac02 // indirect
	github.com/docker/go-connections v0.4.0 // indirect
	github.com/docker/go-units v0.4.0 // indirect
	github.com/duosecurity/duo_api_golang v0.0.0-20190308151101-6c680f768e74 // indirect
	github.com/frankban/quicktest v1.5.0 // indirect
	github.com/go-sql-driver/mysql v1.4.1 // indirect
	github.com/gocql/gocql v0.0.0-20190423091413-b99afaf3b163 // indirect
	github.com/gofrs/uuid v3.3.0+incompatible // indirect
	github.com/golang/protobuf v1.4.2
	github.com/google/go-github v17.0.0+incompatible // indirect
	github.com/google/go-querystring v1.0.0 // indirect
	github.com/gotestyourself/gotestyourself v2.2.0+incompatible // indirect
	github.com/hashicorp/go-hclog v0.9.0 // indirect
	github.com/hashicorp/go-memdb v1.0.1 // indirect
	github.com/hashicorp/go-version v1.2.0 // indirect
	github.com/hashicorp/golang-math-big v0.0.0-20180316142257-561262b71329 // indirect
	github.com/hashicorp/vault v0.9.6 // indirect
	github.com/heetch/confita v0.9.1
	github.com/jackc/fake v0.0.0-20150926172116-812a484cc733 // indirect
	github.com/jackc/pgx v3.6.2+incompatible
	github.com/jefferai/jsonx v1.0.0 // indirect
	github.com/jmoiron/sqlx v1.2.0
	github.com/keybase/go-crypto v0.0.0-20190416182011-b785b22cc757 // indirect
	github.com/lib/pq v1.1.1 // indirect
	github.com/manifoldco/promptui v0.7.0
	github.com/mattn/go-colorable v0.1.1 // indirect
	github.com/mattn/go-isatty v0.0.7 // indirect
	github.com/mgutz/ansi v0.0.0-20170206155736-9520e82c474b // indirect
	github.com/mgutz/logxi v0.0.0-20161027140823-aebf8a7d67ab // indirect
	github.com/mitchellh/reflectwalk v1.0.1 // indirect
	github.com/opencontainers/go-digest v1.0.0-rc1 // indirect
	github.com/opencontainers/image-spec v1.0.1 // indirect
	github.com/opencontainers/runc v0.1.1 // indirect
	github.com/ory/dockertest v3.3.4+incompatible // indirect
	github.com/patrickmn/go-cache v2.1.0+incompatible // indirect
	github.com/sethgrid/pester v0.0.0-20180227223404-ed9870dad317 // indirect
	github.com/shopspring/decimal v1.2.0 // indirect
	github.com/sirupsen/logrus v1.6.0
	github.com/spf13/cobra v1.0.0
	github.com/spf13/pflag v1.0.5
	github.com/streadway/amqp v1.0.0
	golang.org/x/oauth2 v0.0.0-20190402181905-9f3314589c9a // indirect
	golang.org/x/sys v0.0.0-20200620081246-981b61492c35 // indirect
	google.golang.org/grpc v1.29.1
	gopkg.in/mgo.v2 v2.0.0-20180705113604-9856a29383ce // indirect
	gopkg.in/ory-am/dockertest.v3 v3.3.4 // indirect
	gotest.tools v2.2.0+incompatible // indirect
)
